{
  "type": "service_account",
  "project_id": "common-merit-it",
  "private_key_id": "c943d0aff192eeea1a030afaa3971d4e56925b2b",
  "private_key": "-----BEGIN PRIVATE KEY-----\nMIIEvQIBADANBgkqhkiG9w0BAQEFAASCBKcwggSjAgEAAoIBAQC/53qtSK7u5c67\nQD9KbFdeZXnv1LPkULQR/YMVFz6seKglw6GOpiNmxkct4xm3p9EpF6TVFljh0bQ3\nm9SHvrTRKaVJKG3QcLZ5eJaPn67crNsRpsk+J/Uy8nwwTxZzwgeJUvvSRq4h5x7n\n6q1XMEiuVJE6xJ0MPM0ZBs5XG7Kye820KH0c+S1KbifIyFIDYQDoMkM3y/8yHqM6\n20iBVkkMn0OQLm0HXSxgLKxJDQfUShg9i0PL6ZzL8RuPTOfod9+wu4KZlV/2Js7R\nXbFRkHFyRC52Y+QitaVcmdQt5f+ZToBxjmrT731CM/oKFWdeF29cs9R8iXhYLAzf\npjBc31kdAgMBAAECggEAImK40ZnndnkJDPZbINu+3/Qw4C9tuGhZi6uwNDRBD6hj\nALlIFoZga4b1tBwwPH8+dC1/ZIsni/cGYrxyXYxnW98pda1f1+yKVcOsvrlvHK2A\nZ25KOu/v+JwIcqOJM169+PY8lxYBF6QRHp8nRispqssOZshaF5pBac2VZXhaEa7b\n2QD+sy3735Dx/joorHDUNy5nEsbYNmeZoEnQPoUfYLCv6s0ZTIo/YG93j5xCGAP3\na2qlgwWXNBW//EOlTAb8FMr4dJpkvMjucJisZHxTZpv9QPUdM+1hRhkXqZXAidBZ\n8sFmwddUzNAeM0F4IUAD0Zw/vB27TwlH4VmdNI7FZQKBgQDk6yBTVON0EZWYUjJO\nS+3DmqfAt01g0sy13HW8hEK6wifG4cZm/o7dzkjsG7Wl+4rIpnuYQzLOAqSG6kO5\n4J5ABiPVqC9zkw74nSmAtJi9soZnnAylCW5Wp6YYJRJJXJRF7jh69rlPF6xGKhOU\njSXb1Ip9hUkR5J+nRQzh+kjgVwKBgQDWm10lnSrICMIz9sSaj6HKWaBvbD51+Jn5\n7Ze9urr2Qp4EPwdWYEc8C+5CK47C35zxu1XYthmUY/6ZhxGPh0QotRlcEsyje7Z4\n2AeyJYfCrv2Adg1AxsYX2NlciOTubQRxE5+tCohJrMQyrcPLIHe7vVpAe1nJxzoE\nAynqsF8ZqwKBgQC/exmv+qrDdM3/+olPyt1YJ644WltkKQ/I816cULmMhElHZ6VQ\nk4+nYxzGOqtn6o99JRzvEQ6XGcjLfXsnKQbWIQyqdCM09oaoWLXVjbrRuloIopRF\nHC1qWJNrUN8J9GGmWQxvdp8s1G1qx1lXgfVv+0nYkru7NtSA0xZik7uPwwKBgB1/\nXV4+LBMyoP7jfEKCW4qkpxipmCw+72sa7TB26hvPLEkJIMkOkrv+J9GQix7d/YR8\na2BOJ1XuKKCRoChKP2QZAFNXgik2Z+5UQzqJTg/EXbO6hjfRGolMlRPS/SSId4PT\nXq86M2FtDcqpd7AD1nFHpZAXZFAHwkGq7agEdg3hAoGASHf+JCKV1OkMBEHCT2Np\n/JTXJ/PYbx+S3wcFvkbzKE+MHOCPRZLEBrkhBIo35i+8I5oehrTpb8mBaMp/6xqE\nC/nzJqIB0mXbiCfj1lcRL+UQ1UuGRefobt1C1GnVQa16cnRo323J8jxt996EJ/Mk\nPGK7ZQeZR0gm9x+x6OzNoOU=\n-----END PRIVATE KEY-----\n",
  "client_email": "gitlab-service@common-merit-it.iam.gserviceaccount.com",
  "client_id": "110103775280677730877",
  "auth_uri": "https://accounts.google.com/o/oauth2/auth",
  "token_uri": "https://oauth2.googleapis.com/token",
  "auth_provider_x509_cert_url": "https://www.googleapis.com/oauth2/v1/certs",
  "client_x509_cert_url": "https://www.googleapis.com/robot/v1/metadata/x509/gitlab-service%40common-merit-it.iam.gserviceaccount.com",
  "universe_domain": "googleapis.com"
}
